6.1 dplyr::filter() | Programación en R
…
            Programación en R

6.1 dplyr::filter()

Las funciones en dplyr son vectorizadas, por lo que podemos estar seguros que se esta trabajando de manera adecuada. Es común pensar en una función vectorizada como un remplazo eficiente de un ciclo con una operación dada; para este caso, filtrar un conjunto de datos puede ser tedioso mediante ciclos anidados y es lo que se puede remplazar con la función dplyr::filter().

En la base de datos donde se reúne la información correspondiente a la población de México por rangos de edad quinquenales, es evidente que se puede obtener la población total de todo el territorio con la suma de las cantidades dadas por cada estado, así que este registro será eliminado.

(Population_FEntity <- Population_FEntity %>% filter(`Entidad Federativa`!="República Mexicana"))

# A tibble: 448 x 4
   `Entidad Federativa` `Población Total` Rango_edad Porcentaje
   <chr>                            <dbl> <chr>           <dbl>
 1 Aguascalientes                 1066233 0 a 4           10.3 
 2 Baja California                2856361 0 a 4            9.41
 3 Baja California Sur             512030 0 a 4            9.00
 4 Campeche                        755703 0 a 4            8.34
 5 Coahuila                       2501413 0 a 4            9.78
 6 Colima                          568642 0 a 4            8.09
 7 Chiapas                        4293414 0 a 4           11.4 
 8 Chihuahua                      3241513 0 a 4            7.83
 9 Distrito Federal               8737172 0 a 4            7.82
10 Durango                        1509025 0 a 4            9.97
# … with 438 more rows
…
Como el resultado es un tibble, bien podría utilizarse las veces que se desee la función utilizando %>% a los resultados previos. En este caso no se tienen valores perdidos pero es bueno recordar que la función is.na() regresa un vector booleano indicando si en el input dado se tienen valores perdidos, por lo que podría usarse con la función filter() para detectar dichos valores de una manera rápida.

Además de obtener un subconjunto de los datos con filter(), dplyr ofrece otras funciones útiles para obtener un subconjunto específico de datos.

Obtener valores distintos en toda la base o por algunas variables específicas:

Population_FEntity %>% distinct(`Entidad Federativa`)

# A tibble: 32 x 1
   `Entidad Federativa`
   <chr>               
 1 Aguascalientes      
 2 Baja California     
 3 Baja California Sur 
 4 Campeche            
 5 Coahuila            
 6 Colima              
 7 Chiapas             
 8 Chihuahua           
 9 Distrito Federal    
10 Durango             
# … with 22 more rows

set.seed(20)
data_easy <- tibble(x = sample(letters, 50, replace = TRUE), y = sample(1:25, 50, replace = TRUE))
data_easy %>% distinct(y)

# A tibble: 23 x 1
       y
   <int>
 1     1
 2    15
 3     6
 4     2
 5    10
 6    20
 7    23
 8    22
 9     7
10     3
# … with 13 more rows
…
