6.5 dplyr::group_by() | Programación en R
…
            Programación en R

6.5 dplyr::group_by()

Un funcionalidad muy importante es el uso de datos agrupados. Dichos grupos serán subconjuntos de datos que compartan una característica en común. Esto tiene muchas ventajas ya que se pueden obtener funciones resumen con una mayor fluidez y aplicaciones de funciones por bloques en lugar de observaciones individuales. La función para otorgar esta propiedad es dplyr::group_by() en donde sus parámetros indican que variables servirán para crear los grupos de acuerdo a los diferentes valores de esas variables.

Por ejemplo, véase que es natural pensar que en los datos de la población ya vistos se tomen resúmenes por la variable Rango_edad.

Population_FEntity %>% group_by(Rango_edad)

# A tibble: 448 x 4
# Groups:   Rango_edad [14]
   `Entidad Federativa` `Población Total` Rango_edad Población
   <chr>                            <dbl> <chr>          <dbl>
 1 Aguascalientes                 1066233 0 a 4        109853 
 2 Baja California                2856361 0 a 4        268842 
 3 Baja California Sur             512030 0 a 4         46070 
 4 Campeche                        755703 0 a 4         63034.
 5 Coahuila                       2501413 0 a 4        244624.
 6 Colima                          568642 0 a 4         45985 
 7 Chiapas                        4293414 0 a 4        491525 
 8 Chihuahua                      3241513 0 a 4        253834.
 9 Distrito Federal               8737172 0 a 4        682914.
10 Durango                        1509025 0 a 4        150485 
# … with 438 more rows
…
Entonces, al aplicar funciones con mutate, estas se harán por grupos.

Population_FEntity %>% 
  group_by(Rango_edad) %>% 
  mutate("Población Mínima" = min(Población), "Población Máxima" = max(Población))

# A tibble: 448 x 6
# Groups:   Rango_edad [14]
   `Entidad Federa… `Población Tota… Rango_edad Población `Población Míni…
   <chr>                       <dbl> <chr>          <dbl>            <dbl>
 1 Aguascalientes            1066233 0 a 4        109853             45985
 2 Baja California           2856361 0 a 4        268842             45985
 3 Baja California…           512030 0 a 4         46070             45985
 4 Campeche                   755703 0 a 4         63034.            45985
 5 Coahuila                  2501413 0 a 4        244624.            45985
 6 Colima                     568642 0 a 4         45985             45985
 7 Chiapas                   4293414 0 a 4        491525             45985
 8 Chihuahua                 3241513 0 a 4        253834.            45985
 9 Distrito Federal          8737172 0 a 4        682914.            45985
10 Durango                   1509025 0 a 4        150485             45985
# … with 438 more rows, and 1 more variable: `Población Máxima` <dbl>

Igual se puede agrupar por distintas variables

Population_FEntity %>% 
  mutate(division = rep(c(rep(1,16),rep(2,16)), 14)) %>% 
  group_by(Rango_edad, division) %>% 
  mutate(index = row_number()) %>% 
  select(`Entidad Federativa`, Rango_edad, division, index)

# A tibble: 448 x 4
# Groups:   Rango_edad, division [28]
   `Entidad Federativa` Rango_edad division index
   <chr>                <chr>         <dbl> <int>
 1 Aguascalientes       0 a 4             1     1
 2 Baja California      0 a 4             1     2
 3 Baja California Sur  0 a 4             1     3
 4 Campeche             0 a 4             1     4
 5 Coahuila             0 a 4             1     5
 6 Colima               0 a 4             1     6
 7 Chiapas              0 a 4             1     7
 8 Chihuahua            0 a 4             1     8
 9 Distrito Federal     0 a 4             1     9
10 Durango              0 a 4             1    10
# … with 438 more rows
…
