6.7 Joins y Set Operations | Programación en R
…
normalization <- function(data){
  colnames(data) <- c("Entidad Federativa", "Población Total", unique(Population_FEntity$Rango_edad))
  data <- data %>% 
    gather(key = "Rango_edad", 
           value = "Porcentaje", -c("Entidad Federativa", "Población Total")) %>% 
  mutate(Porcentaje = Porcentaje/100) %>% 
  mutate("Población" = Porcentaje * `Población Total`) %>% 
  select(-Porcentaje, -`Población Total`)
}

Population_FEntity_M <- readxl::read_xls("Data/Population_Sex_FEntity.xls", range = "B43:Q74", col_names = F)
(Population_FEntity_M <- normalization(Population_FEntity_M))

# A tibble: 448 x 3
   `Entidad Federativa` Rango_edad Población
   <chr>                <chr>          <dbl>
 1 Aguascalientes       0 a 4         51587.
 2 Baja California      0 a 4        124995.
 3 Baja California Sur  0 a 4         22289.
 4 Campeche             0 a 4         37749.
 5 Coahuila             0 a 4        104304.
 6 Colima               0 a 4         34496.
 7 Chiapas              0 a 4        170085.
 8 Chihuahua            0 a 4        122434.
 9 Distrito Federal     0 a 4        462096.
10 Durango              0 a 4         76977.
# … with 438 more rows

Population_FEntity_F <- readxl::read_xls("Data/Population_Sex_FEntity.xls", range = "B79:Q110", col_names = F)
(Population_FEntity_F <- normalization(Population_FEntity_F))

# A tibble: 448 x 3
   `Entidad Federativa` Rango_edad Población
   <chr>                <chr>          <dbl>
 1 Aguascalientes       0 a 4         56336 
 2 Baja California      0 a 4        127107.
 3 Baja California Sur  0 a 4         22569 
 4 Campeche             0 a 4         32170 
 5 Coahuila             0 a 4        115765 
 6 Colima               0 a 4         23751.
 7 Chiapas              0 a 4        227851 
 8 Chihuahua            0 a 4        122055 
 9 Distrito Federal     0 a 4        366480 
10 Durango              0 a 4         68470 
# … with 438 more rows

Así es fácil crear un sólo conjunto de datos donde se reúna toda la información relevante

Population_FEntity <- Population_FEntity %>% select(-`Población Total`)
Population_FEntityWS <- left_join(Population_FEntity, Population_FEntity_M, by = c("Entidad Federativa", "Rango_edad"))
(Population_FEntityWS <- left_join(Population_FEntityWS, Population_FEntity_F, by = c("Entidad Federativa", "Rango_edad")) %>% 
    rename( "Población Total" = "Población.x", "PoblaciónM" = "Población.y", "PoblaciónF" = "Población"))

# A tibble: 448 x 5
   `Entidad Federativa` Rango_edad `Población Total` PoblaciónM PoblaciónF
   <chr>                <chr>                  <dbl>      <dbl>      <dbl>
 1 Aguascalientes       0 a 4                109853      51587.     56336 
 2 Baja California      0 a 4                268842     124995.    127107.
 3 Baja California Sur  0 a 4                 46070      22289.     22569 
 4 Campeche             0 a 4                 63034.     37749.     32170 
 5 Coahuila             0 a 4                244624.    104304.    115765 
 6 Colima               0 a 4                 45985      34496.     23751.
 7 Chiapas              0 a 4                491525     170085.    227851 
 8 Chihuahua            0 a 4                253834.    122434.    122055 
 9 Distrito Federal     0 a 4                682914.    462096.    366480 
10 Durango              0 a 4                150485      76977.     68470 
# … with 438 more rows

Por rango de edad ¿Qué sexo predomina en cada población?

Population_FEntityWS %>% 
  mutate(PPredominante = if_else(PoblaciónM>=PoblaciónF, "M", "F")) %>% 
  select(`Entidad Federativa`, Rango_edad, PPredominante)

# A tibble: 448 x 3
   `Entidad Federativa` Rango_edad PPredominante
   <chr>                <chr>      <chr>        
 1 Aguascalientes       0 a 4      F            
 2 Baja California      0 a 4      F            
 3 Baja California Sur  0 a 4      F            
 4 Campeche             0 a 4      M            
 5 Coahuila             0 a 4      F            
 6 Colima               0 a 4      M            
 7 Chiapas              0 a 4      F            
 8 Chihuahua            0 a 4      M            
 9 Distrito Federal     0 a 4      M            
10 Durango              0 a 4      M            
# … with 438 more rows
…
Múltiples tipos de observaciones están en la misma tabla.

Una sola observación esta en múltiples tablas.

En el ejemplo que se ha tomado de la población mexicana tiene el primer defecto, ya que la población total bien podría quedar en una sola tabla junto con el nombre de la entidad y en otra los porcentajes de acuerdo a los rangos de edad. En general en este punto se debe tener en cuenta que cada unidad observacional debe tener su propia tabla, así logrando un técnica en bases de datos llamada normalización. Para este caso, se tendrían dos tablas

Population_FEntity <- readxl::read_xls("Data/Population_Sex_FEntity.xls", range = "B5:Q38", col_names = TRUE)
colnames(Population_FEntity)[1:2] <- c("Entidad Federativa", "Población Total")
Population_FEntity <- Population_FEntity %>% gather(key = "Rango_edad", 
           value = "Porcentaje", -c("Entidad Federativa", "Población Total")) %>% 
  mutate(Porcentaje = Porcentaje/100) %>% 
  mutate("Población" = Porcentaje * `Población Total`)
(t1 <- Population_FEntity %>% select(`Entidad Federativa`, `Población Total`))

# A tibble: 462 x 2
   `Entidad Federativa` `Población Total`
   <chr>                            <dbl>
 1 República Mexicana           103498524
 2 Aguascalientes                 1066233
 3 Baja California                2856361
 4 Baja California Sur             512030
 5 Campeche                        755703
 6 Coahuila                       2501413
 7 Colima                          568642
 8 Chiapas                        4293414
 9 Chihuahua                      3241513
10 Distrito Federal               8737172
# … with 452 more rows

(t2 <- Population_FEntity %>% select(`Entidad Federativa`, Rango_edad,  Población))

# A tibble: 462 x 3
   `Entidad Federativa` Rango_edad Población
   <chr>                <chr>          <dbl>
 1 República Mexicana   0 a 4       9637687 
 2 Aguascalientes       0 a 4        109853 
 3 Baja California      0 a 4        268842 
 4 Baja California Sur  0 a 4         46070 
 5 Campeche             0 a 4         63034.
 6 Coahuila             0 a 4        244624.
 7 Colima               0 a 4         45985 
 8 Chiapas              0 a 4        491525 
 9 Chihuahua            0 a 4        253834.
10 Distrito Federal     0 a 4        682914.
# … with 452 more rows
…
