Capítulo 5 Limpieza de datos: Tidyr | Programación en R
…
Múltiples variables están contenidas en una sola.

Existen variables que están almacenadas tanto en renglones como columnas.

Múltiples tipos de observaciones están en la misma tabla.

Una sola observación esta en múltiples tablas.

En la sección anterior se presentaron los datos para la población por sexo y entidad federativa según grupos de edad quinquenales de acuerdo a los tabulados básicos de la CONAPO

colnames(Population_FEntity)[1:2] <- c("Entidad Federativa", "Población Total")
Population_FEntity

# A tibble: 33 x 16
   `Entidad Federa… `Población Tota… `0 a 4` `5 a 9` `10 a 14` `15 a 19`
   <chr>                       <dbl>   <dbl>   <dbl>     <dbl>     <dbl>
 1 República Mexic…        103498524    9.31   10.4      11.2      10.1 
 2 Aguascalientes            1066233   10.3    11.0      11.1      10.9 
 3 Baja California           2856361    9.41   10.3      11.1      10.7 
 4 Baja California…           512030    9.00    8.44     10.1      10.8 
 5 Campeche                   755703    8.34   10.4      12.7       9.52
 6 Coahuila                  2501413    9.78   10.1      10.6       9.96
 7 Colima                     568642    8.09    8.43     10.0      11.0 
 8 Chiapas                   4293414   11.4    11.8      13.2      11.0 
 9 Chihuahua                 3241513    7.83   10.2      11.0       9.49
10 Distrito Federal          8737172    7.82    8.82      8.09      8.19
# … with 23 more rows, and 10 more variables: `20 a 24` <dbl>, `25 a 29` <dbl>,
#   `30 a 34` <dbl>, `35 a 39` <dbl>, `40 a 44` <dbl>, `45 a 49` <dbl>, `50 a
#   54` <dbl>, `55 a 59` <dbl>, `60 y más` <dbl>, NE <dbl>

En las primeras dos columnas se cambiaron los nombres con las herramientas que hasta este momento se tienen. Véase que las demás columnas representan rangos de edad, por lo que se tiene el primer problema en los messy datasets. De hecho, en estos datos las variables son la Entidad Federativa, la Población Total, el Rango de Edad y el Porcentaje de la población total en ese rango de edad.

En estos casos se dice los datos son anchos, y lo que se desea es que estos estén en un formato largo (ancho por la cantidad de columnas y largo por la cantidad de observaciones). Para tales casos se utiliza la función tidyr::gather() la cual recibe como parámetros múltiples columnas y colapsa la información de estas en dos variables.

(Population_FEntity <- gather(data = Population_FEntity, key = "Rango_edad", value = "Porcentaje", -c("Entidad Federativa", "Población Total")))

# A tibble: 462 x 4
   `Entidad Federativa` `Población Total` Rango_edad Porcentaje
   <chr>                            <dbl> <chr>           <dbl>
 1 República Mexicana           103498524 0 a 4            9.31
 2 Aguascalientes                 1066233 0 a 4           10.3 
 3 Baja California                2856361 0 a 4            9.41
 4 Baja California Sur             512030 0 a 4            9.00
 5 Campeche                        755703 0 a 4            8.34
 6 Coahuila                       2501413 0 a 4            9.78
 7 Colima                          568642 0 a 4            8.09
 8 Chiapas                        4293414 0 a 4           11.4 
 9 Chihuahua                      3241513 0 a 4            7.83
10 Distrito Federal               8737172 0 a 4            7.82
# … with 452 more rows

Con lo anterior se logro tener una mejor estructura en los datos, con lo cual fácilmente se podrían crear gráficas, modelos y estadísticas de resumen por Entidad Federativa o por rango de edad. Después de tener la información con una estructura adecuada, la imaginación es el único limitante. En el siguiente capítulo se verá como manipular internamente los datos para que se tenga una mejor semántica en ellos.

Si se desea por algún motivo, lo cual puede suceder, tener los datos en formato ancho, se puede usar la función complementaria la cual es tidyr::spread()

Population_FEntity %>% spread(key = "Rango_edad",value = "Porcentaje")

# A tibble: 33 x 16
   `Entidad Federa… `Población Tota… `0 a 4` `10 a 14` `15 a 19` `20 a 24`
   <chr>                       <dbl>   <dbl>     <dbl>     <dbl>     <dbl>
 1 Aguascalientes            1066233   10.3      11.1      10.9       8.27
 2 Baja California           2856361    9.41     11.1      10.7       8.43
 3 Baja California…           512030    9.00     10.1      10.8       8.75
 4 Campeche                   755703    8.34     12.7       9.52      9.23
 5 Chiapas                   4293414   11.4      13.2      11.0       9.16
 6 Chihuahua                 3241513    7.83     11.0       9.49      7.71
 7 Coahuila                  2501413    9.78     10.6       9.96      8.31
 8 Colima                     568642    8.09     10.0      11.0       9.29
 9 Distrito Federal          8737172    7.82      8.09      8.19      7.86
10 Durango                   1509025    9.97     11.8      10.3       8.11
# … with 23 more rows, and 10 more variables: `25 a 29` <dbl>, `30 a 34` <dbl>,
#   `35 a 39` <dbl>, `40 a 44` <dbl>, `45 a 49` <dbl>, `5 a 9` <dbl>, `50 a
#   54` <dbl>, `55 a 59` <dbl>, `60 y más` <dbl>, NE <dbl>
…
Otro ejemplo lo proporciona la Cheat Sheet Data Wrangling.

# A tibble: 10,010 x 11
   name  date   hour   lat  long status category  wind pressure ts_diameter
   <chr> <chr> <dbl> <dbl> <dbl> <chr>  <ord>    <int>    <int>       <dbl>
 1 Amy   1975…     0  27.5 -79   tropi… -1          25     1013          NA
 2 Amy   1975…     6  28.5 -79   tropi… -1          25     1013          NA
 3 Amy   1975…    12  29.5 -79   tropi… -1          25     1013          NA
 4 Amy   1975…    18  30.5 -79   tropi… -1          25     1013          NA
 5 Amy   1975…     0  31.5 -78.8 tropi… -1          25     1012          NA
 6 Amy   1975…     6  32.4 -78.7 tropi… -1          25     1012          NA
 7 Amy   1975…    12  33.3 -78   tropi… -1          25     1011          NA
 8 Amy   1975…    18  34   -77   tropi… -1          30     1006          NA
 9 Amy   1975…     0  34.4 -75.8 tropi… 0           35     1004          NA
10 Amy   1975…     6  34   -74.8 tropi… 0           40     1002          NA
# … with 10,000 more rows, and 1 more variable: hu_diameter <dbl>

separate(storms, col = date ,into =  c("year", "month", "day"), sep = c(4, 5))

# A tibble: 10,010 x 13
   name  year  month day    hour   lat  long status category  wind pressure
   <chr> <chr> <chr> <chr> <dbl> <dbl> <dbl> <chr>  <ord>    <int>    <int>
 1 Amy   1975  6     27        0  27.5 -79   tropi… -1          25     1013
 2 Amy   1975  6     27        6  28.5 -79   tropi… -1          25     1013
 3 Amy   1975  6     27       12  29.5 -79   tropi… -1          25     1013
 4 Amy   1975  6     27       18  30.5 -79   tropi… -1          25     1013
 5 Amy   1975  6     28        0  31.5 -78.8 tropi… -1          25     1012
 6 Amy   1975  6     28        6  32.4 -78.7 tropi… -1          25     1012
 7 Amy   1975  6     28       12  33.3 -78   tropi… -1          25     1011
 8 Amy   1975  6     28       18  34   -77   tropi… -1          30     1006
 9 Amy   1975  6     29        0  34.4 -75.8 tropi… 0           35     1004
10 Amy   1975  6     29        6  34   -74.8 tropi… 0           40     1002
# … with 10,000 more rows, and 2 more variables: ts_diameter <dbl>,
#   hu_diameter <dbl>
…
