Capítulo 4 Tidyverse | Programación en R
…
En caso de que se desee leer un archivo por algún otro delimitador, se puede usar la función read_delim() y en el caso de tener archivos donde el delimitador sea “\t” usar la función read_tsv(). Los datos que se utilizan son proporcionados por el US Census Bureau, los cuales fueron indirectamente obtenidos del siguiente enlance.

library(readxl)
(US_Census_Bureau <- readr::read_delim("Data/US Census Bureau.txt", delim = "|"))

# A tibble: 54 x 11
   X1      `1900` `1901` `1902` `1903` `1904` `1905` `1906` `1907` `1908` `1909`
   <chr>    <dbl>  <dbl>  <dbl>  <dbl>  <dbl>  <dbl>  <dbl>  <dbl>  <dbl> <chr> 
 1 U.S.     76094  77585  79160  80632  82165  83820  85437  87000  88709 90,492
 2 Northe…  21059  21401  21815  22248  22716  23214  23769  24320  24879 25,440
 3 North_…  26359  26722  27126  27446  27830  28203  28524  28868  29187 29,530
 4 South    24565  25114  25599  26055  26492  27003  27475  27879  28406 28,963
 5 West      4112   4351   4620   4882   5127   5398   5671   5934   6234 6,557 
 6 AL        1830   1907   1935   1957   1978   2012   2045   2058   2070 2,108 
 7 AR        1314   1341   1360   1384   1419   1447   1465   1484   1513 1,545 
 8 AZ         124    131    138    144    151    158    167    176    186 196   
 9 CA        1490   1550   1623   1702   1792   1893   1976   2054   2161 2,282 
10 CO         543    581    621    652    659    680    707    733    757 775   
# … with 44 more rows

read_tsv("Data/US Census Bureautsv.txt")

# A tibble: 54 x 11
   X1      `1900` `1901` `1902` `1903` `1904` `1905` `1906` `1907` `1908` `1909`
   <chr>    <dbl>  <dbl>  <dbl>  <dbl>  <dbl>  <dbl>  <dbl>  <dbl>  <dbl> <chr> 
 1 U.S.     76094  77585  79160  80632  82165  83820  85437  87000  88709 90,492
 2 Northe…  21059  21401  21815  22248  22716  23214  23769  24320  24879 25,440
 3 North_…  26359  26722  27126  27446  27830  28203  28524  28868  29187 29,530
 4 South    24565  25114  25599  26055  26492  27003  27475  27879  28406 28,963
 5 West      4112   4351   4620   4882   5127   5398   5671   5934   6234 6,557 
 6 AL        1830   1907   1935   1957   1978   2012   2045   2058   2070 2,108 
 7 AR        1314   1341   1360   1384   1419   1447   1465   1484   1513 1,545 
 8 AZ         124    131    138    144    151    158    167    176    186 196   
 9 CA        1490   1550   1623   1702   1792   1893   1976   2054   2161 2,282 
10 CO         543    581    621    652    659    680    707    733    757 775   
# … with 44 more rows

El paquete readxl esta diseño para leer archivos excel. La siguiente información proporciona la población por sexo y entidad federativa según grupos de edad quinquenales de acuerdo a los tabulados básicos de la CONAPO.

(Population_FEntity <- readxl::read_xls("Data/Population_Sex_FEntity.xls", range = "B5:Q38"))

# A tibble: 33 x 16
   ...1    ...2 `0 a 4` `5 a 9` `10 a 14` `15 a 19` `20 a 24` `25 a 29`
   <chr>  <dbl>   <dbl>   <dbl>     <dbl>     <dbl>     <dbl>     <dbl>
 1 Repú… 1.03e8    9.31   10.4      11.2      10.1       8.33      7.33
 2 Agua… 1.07e6   10.3    11.0      11.1      10.9       8.27      7.34
 3 Baja… 2.86e6    9.41   10.3      11.1      10.7       8.43      7.82
 4 Baja… 5.12e5    9.00    8.44     10.1      10.8       8.75      7.37
 5 Camp… 7.56e5    8.34   10.4      12.7       9.52      9.23      7.74
 6 Coah… 2.50e6    9.78   10.1      10.6       9.96      8.31      7.11
 7 Coli… 5.69e5    8.09    8.43     10.0      11.0       9.29      7.11
 8 Chia… 4.29e6   11.4    11.8      13.2      11.0       9.16      7.15
 9 Chih… 3.24e6    7.83   10.2      11.0       9.49      7.71      6.03
10 Dist… 8.74e6    7.82    8.82      8.09      8.19      7.86      7.89
# … with 23 more rows, and 8 more variables: `30 a 34` <dbl>, `35 a 39` <dbl>,
#   `40 a 44` <dbl>, `45 a 49` <dbl>, `50 a 54` <dbl>, `55 a 59` <dbl>, `60 y
#   más` <dbl>, NE <dbl>
…
